…
data
#> Simple feature collection with 96 features and 24 fields
#> geometry type:  POINT
#> dimension:      XY
#> bbox:           xmin: -10.60808 ymin: 45.59042 xmax: 4.95983 ymax: 58.92086
#> CRS:            EPSG:4326
#> # A tibble: 96 x 25
#>    month year  scientificName aphiaID maximumDepthInM… id    eventDate
#>    <chr> <chr> <chr>            <int>            <dbl> <chr> <chr>    
#>  1 10    1982  Palinurus ele…  107703               NA 01c3… 1982-10-…
#>  2 04    2003  Palinurus ele…  107703               NA 01d3… 2003-04-…
#>  3 08    2009  Palinurus ele…  107703               NA 0227… 2009-08-…
#>  4 06    2009  Palinurus ele…  107703               NA 0704… 2009-06-…
#>  5 09    2009  Palinurus ele…  107703               NA 0a2e… 2009-09-…
#>  6 08    1978  Palinurus ele…  107703               NA 0afa… 1978-08-…
#>  7 07    1977  Palinurus ele…  107703               NA 0b1b… 1977-07-…
#>  8 08    2010  Palinurus ele…  107703               NA 0d72… 2010-08-…
#>  9 08    2009  Palinurus ele…  107703               NA 0dbe… 2009-08-…
#> 10 07    2009  Palinurus ele…  107703               NA 0e17… 2009-07-…
#> # … with 86 more rows, and 18 more variables: minimumDepthInMeters <int>,
#> #   depth <dbl>, depth0 <dbl>, geometry <POINT [°]>, BO_ph <dbl>,
#> #   BO_phosphate <dbl>, BO2_phosphatemean_bdmax <dbl>, BO_nitrate <dbl>,
#> #   BO2_nitratemean_bdmax <dbl>, surface_nitrogen <dbl>, tn <dbl>,
#> #   surface_carbon <dbl>, BO_sstmean <dbl>, BO_sstmin <dbl>, BO_sstmax <dbl>,
#> #   MS_biogeo13_sst_mean_5m <dbl>, MS_biogeo14_sst_min_5m <dbl>,
#> #   MS_biogeo15_sst_max_5m <dbl>
```
…
