Link and query OBIS occurence data with a variety of marine habitat data • OBIShmpr
…
data
#> Simple feature collection with 96 features and 24 fields
#> geometry type:  POINT
#> dimension:      XY
#> bbox:           xmin: -10.60808 ymin: 45.59042 xmax: 4.95983 ymax: 58.92086
#> epsg (SRID):    4326
#> proj4string:    +proj=longlat +datum=WGS84 +no_defs
#> # A tibble: 96 x 25
#>    month year  scientificName aphiaID maximumDepthInM… id    eventDate
#>    <chr> <chr> <chr>            <int>            <dbl> <chr> <chr>    
#>  1 08    1992  Palinurus ele…  107703               NA 039f… 1992-08-…
#>  2 07    2003  Palinurus ele…  107703               NA 0a5a… 2003-07-…
#>  3 05    2010  Palinurus ele…  107703               NA 0a88… 2010-05-…
#>  4 07    1977  Palinurus ele…  107703               NA 0b6f… 1977-07-…
#>  5 06    1981  Palinurus ele…  107703               NA 0e4d… 1981-06-…
#>  6 05    2010  Palinurus ele…  107703               NA 0f0d… 2010-05-…
#>  7 08    2009  Palinurus ele…  107703               NA 1041… 2009-08-…
#>  8 07    2009  Palinurus ele…  107703               NA 109e… 2009-07-…
#>  9 08    1988  Palinurus ele…  107703               NA 14f4… 1988-08-…
#> 10 07    2011  Palinurus ele…  107703               NA 17f1… 2011-07-…
#> # … with 86 more rows, and 18 more variables: minimumDepthInMeters <int>,
#> #   depth <dbl>, depth0 <dbl>, geometry <POINT [°]>, BO_ph <dbl>,
#> #   BO_phosphate <dbl>, BO2_phosphatemean_bdmax <dbl>, BO_nitrate <dbl>,
#> #   BO2_nitratemean_bdmax <dbl>, surface_nitrogen <dbl>, tn <dbl>,
#> #   surface_carbon <dbl>, BO_sstmean <dbl>, BO_sstmin <dbl>, BO_sstmax <dbl>,
#> #   MS_biogeo13_sst_mean_5m <dbl>, MS_biogeo14_sst_min_5m <dbl>,
#> #   MS_biogeo15_sst_max_5m <dbl>
…
